....
----------------------------------------------------------------------
Ran 4 tests in 0.075s

OK
Name             Stmts   Miss Branch BrPart  Cover   Missing
------------------------------------------------------------
Netflix.py          42      3      6      1    92%   26-29, 22->26
TestNetflix.py      26      0      0      0   100%
------------------------------------------------------------
TOTAL               68      3      6      1    95%
